%YAML 1.1
%TAG !u! tag:unity3d.com,2011:
--- !u!1001 &8648526845624956651
PrefabInstance:
  m_ObjectHideFlags: 0
  serializedVersion: 2
  m_Modification:
    serializedVersion: 3
    m_TransformParent: {fileID: 0}
    m_Modifications:
    - target: {fileID: 2891426965837326926, guid: 55aa2faab3301d1419c54ec89fa1b340, type: 3}
      propertyPath: m_RootOrder
      value: 7
      objectReference: {fileID: 0}
    - target: {fileID: 2891426965837326926, guid: 55aa2faab3301d1419c54ec89fa1b340, type: 3}
      propertyPath: m_LocalPosition.x
      value: 8.5
      objectReference: {fileID: 0}
    - target: {fileID: 2891426965837326926, guid: 55aa2faab3301d1419c54ec89fa1b340, type: 3}
      propertyPath: m_LocalPosition.y
      value: -5.5
      objectReference: {fileID: 0}
    - target: {fileID: 2891426965837326926, guid: 55aa2faab3301d1419c54ec89fa1b340, type: 3}
      propertyPath: m_LocalPosition.z
      value: 0
      objectReference: {fileID: 0}
    - target: {fileID: 2891426965837326926, guid: 55aa2faab3301d1419c54ec89fa1b340, type: 3}
      propertyPath: m_LocalRotation.w
      value: 1
      objectReference: {fileID: 0}
    - target: {fileID: 2891426965837326926, guid: 55aa2faab3301d1419c54ec89fa1b340, type: 3}
      propertyPath: m_LocalRotation.x
      value: 0
      objectReference: {fileID: 0}
    - target: {fileID: 2891426965837326926, guid: 55aa2faab3301d1419c54ec89fa1b340, type: 3}
      propertyPath: m_LocalRotation.y
      value: 0
      objectReference: {fileID: 0}
    - target: {fileID: 2891426965837326926, guid: 55aa2faab3301d1419c54ec89fa1b340, type: 3}
      propertyPath: m_LocalRotation.z
      value: 0
      objectReference: {fileID: 0}
    - target: {fileID: 2891426965837326926, guid: 55aa2faab3301d1419c54ec89fa1b340, type: 3}
      propertyPath: m_LocalEulerAnglesHint.x
      value: 0
      objectReference: {fileID: 0}
    - target: {fileID: 2891426965837326926, guid: 55aa2faab3301d1419c54ec89fa1b340, type: 3}
      propertyPath: m_LocalEulerAnglesHint.y
      value: 0
      objectReference: {fileID: 0}
    - target: {fileID: 2891426965837326926, guid: 55aa2faab3301d1419c54ec89fa1b340, type: 3}
      propertyPath: m_LocalEulerAnglesHint.z
      value: 0
      objectReference: {fileID: 0}
    - target: {fileID: 2891426965837326928, guid: 55aa2faab3301d1419c54ec89fa1b340, type: 3}
      propertyPath: m_Name
      value: BossExit Variant
      objectReference: {fileID: 0}
    m_RemovedComponents:
    - {fileID: 2891426965837326927, guid: 55aa2faab3301d1419c54ec89fa1b340, type: 3}
    m_RemovedGameObjects: []
    m_AddedGameObjects: []
    m_AddedComponents:
    - targetCorrespondingSourceObject: {fileID: 2891426965837326928, guid: 55aa2faab3301d1419c54ec89fa1b340, type: 3}
      insertIndex: -1
      addedObject: {fileID: 8033622312949033792}
  m_SourcePrefab: {fileID: 100100000, guid: 55aa2faab3301d1419c54ec89fa1b340, type: 3}
--- !u!1 &5775256128185146555 stripped
GameObject:
  m_CorrespondingSourceObject: {fileID: 2891426965837326928, guid: 55aa2faab3301d1419c54ec89fa1b340, type: 3}
  m_PrefabInstance: {fileID: 8648526845624956651}
  m_PrefabAsset: {fileID: 0}
--- !u!114 &8033622312949033792
MonoBehaviour:
  m_ObjectHideFlags: 0
  m_CorrespondingSourceObject: {fileID: 0}
  m_PrefabInstance: {fileID: 0}
  m_PrefabAsset: {fileID: 0}
  m_GameObject: {fileID: 5775256128185146555}
  m_Enabled: 1
  m_EditorHideFlags: 0
  m_Script: {fileID: 11500000, guid: c0751344f3aa43d2bf7f2299033b3dc2, type: 3}
  m_Name: 
  m_EditorClassIdentifier: 
