%YAML 1.1
%TAG !u! tag:unity3d.com,2011:
--- !u!1 &8228801047128037673
GameObject:
  m_ObjectHideFlags: 0
  m_CorrespondingSourceObject: {fileID: 0}
  m_PrefabInstance: {fileID: 0}
  m_PrefabAsset: {fileID: 0}
  serializedVersion: 6
  m_Component:
  - component: {fileID: 8466392306864434754}
  - component: {fileID: 6702129187144433892}
  m_Layer: 0
  m_Name: GroundPalette
  m_TagString: Untagged
  m_Icon: {fileID: 0}
  m_NavMeshLayer: 0
  m_StaticEditorFlags: 0
  m_IsActive: 1
--- !u!4 &8466392306864434754
Transform:
  m_ObjectHideFlags: 0
  m_CorrespondingSourceObject: {fileID: 0}
  m_PrefabInstance: {fileID: 0}
  m_PrefabAsset: {fileID: 0}
  m_GameObject: {fileID: 8228801047128037673}
  m_LocalRotation: {x: 0, y: 0, z: 0, w: 1}
  m_LocalPosition: {x: 0, y: 0, z: 0}
  m_LocalScale: {x: 1, y: 1, z: 1}
  m_ConstrainProportionsScale: 0
  m_Children:
  - {fileID: 292941177194319540}
  m_Father: {fileID: 0}
  m_RootOrder: 0
  m_LocalEulerAnglesHint: {x: 0, y: 0, z: 0}
--- !u!156049354 &6702129187144433892
Grid:
  m_ObjectHideFlags: 0
  m_CorrespondingSourceObject: {fileID: 0}
  m_PrefabInstance: {fileID: 0}
  m_PrefabAsset: {fileID: 0}
  m_GameObject: {fileID: 8228801047128037673}
  m_Enabled: 1
  m_CellSize: {x: 1, y: 1, z: 0}
  m_CellGap: {x: 0, y: 0, z: 0}
  m_CellLayout: 0
  m_CellSwizzle: 0
--- !u!1 &9091814357333773893
GameObject:
  m_ObjectHideFlags: 0
  m_CorrespondingSourceObject: {fileID: 0}
  m_PrefabInstance: {fileID: 0}
  m_PrefabAsset: {fileID: 0}
  serializedVersion: 6
  m_Component:
  - component: {fileID: 292941177194319540}
  - component: {fileID: 5517230518932525853}
  - component: {fileID: 7572821869846304743}
  m_Layer: 0
  m_Name: Layer1
  m_TagString: Untagged
  m_Icon: {fileID: 0}
  m_NavMeshLayer: 0
  m_StaticEditorFlags: 0
  m_IsActive: 1
--- !u!4 &292941177194319540
Transform:
  m_ObjectHideFlags: 0
  m_CorrespondingSourceObject: {fileID: 0}
  m_PrefabInstance: {fileID: 0}
  m_PrefabAsset: {fileID: 0}
  m_GameObject: {fileID: 9091814357333773893}
  m_LocalRotation: {x: -0, y: -0, z: -0, w: 1}
  m_LocalPosition: {x: 0, y: 0, z: 0}
  m_LocalScale: {x: 1, y: 1, z: 1}
  m_ConstrainProportionsScale: 0
  m_Children: []
  m_Father: {fileID: 8466392306864434754}
  m_RootOrder: 0
  m_LocalEulerAnglesHint: {x: 0, y: 0, z: 0}
--- !u!1839735485 &5517230518932525853
Tilemap:
  m_ObjectHideFlags: 0
  m_CorrespondingSourceObject: {fileID: 0}
  m_PrefabInstance: {fileID: 0}
  m_PrefabAsset: {fileID: 0}
  m_GameObject: {fileID: 9091814357333773893}
  m_Enabled: 1
  m_Tiles:
  - first: {x: -1, y: -6, z: 0}
    second:
      serializedVersion: 2
      m_TileIndex: 42
      m_TileSpriteIndex: 42
      m_TileMatrixIndex: 0
      m_TileColorIndex: 0
      m_TileObjectToInstantiateIndex: 65535
      dummyAlignment: 0
      m_AllTileFlags: 1073741825
  - first: {x: 0, y: -6, z: 0}
    second:
      serializedVersion: 2
      m_TileIndex: 43
      m_TileSpriteIndex: 43
      m_TileMatrixIndex: 0
      m_TileColorIndex: 0
      m_TileObjectToInstantiateIndex: 65535
      dummyAlignment: 0
      m_AllTileFlags: 1073741825
  - first: {x: 1, y: -6, z: 0}
    second:
      serializedVersion: 2
      m_TileIndex: 44
      m_TileSpriteIndex: 44
      m_TileMatrixIndex: 0
      m_TileColorIndex: 0
      m_TileObjectToInstantiateIndex: 65535
      dummyAlignment: 0
      m_AllTileFlags: 1073741825
  - first: {x: 2, y: -6, z: 0}
    second:
      serializedVersion: 2
      m_TileIndex: 45
      m_TileSpriteIndex: 45
      m_TileMatrixIndex: 0
      m_TileColorIndex: 0
      m_TileObjectToInstantiateIndex: 65535
      dummyAlignment: 0
      m_AllTileFlags: 1073741825
  - first: {x: 3, y: -6, z: 0}
    second:
      serializedVersion: 2
      m_TileIndex: 46
      m_TileSpriteIndex: 46
      m_TileMatrixIndex: 0
      m_TileColorIndex: 0
      m_TileObjectToInstantiateIndex: 65535
      dummyAlignment: 0
      m_AllTileFlags: 1073741825
  - first: {x: 4, y: -6, z: 0}
    second:
      serializedVersion: 2
      m_TileIndex: 47
      m_TileSpriteIndex: 47
      m_TileMatrixIndex: 0
      m_TileColorIndex: 0
      m_TileObjectToInstantiateIndex: 65535
      dummyAlignment: 0
      m_AllTileFlags: 1073741825
  - first: {x: -1, y: -5, z: 0}
    second:
      serializedVersion: 2
      m_TileIndex: 36
      m_TileSpriteIndex: 36
      m_TileMatrixIndex: 0
      m_TileColorIndex: 0
      m_TileObjectToInstantiateIndex: 65535
      dummyAlignment: 0
      m_AllTileFlags: 1073741825
  - first: {x: 0, y: -5, z: 0}
    second:
      serializedVersion: 2
      m_TileIndex: 37
      m_TileSpriteIndex: 37
      m_TileMatrixIndex: 0
      m_TileColorIndex: 0
      m_TileObjectToInstantiateIndex: 65535
      dummyAlignment: 0
      m_AllTileFlags: 1073741825
  - first: {x: 1, y: -5, z: 0}
    second:
      serializedVersion: 2
      m_TileIndex: 38
      m_TileSpriteIndex: 38
      m_TileMatrixIndex: 0
      m_TileColorIndex: 0
      m_TileObjectToInstantiateIndex: 65535
      dummyAlignment: 0
      m_AllTileFlags: 1073741825
  - first: {x: 2, y: -5, z: 0}
    second:
      serializedVersion: 2
      m_TileIndex: 39
      m_TileSpriteIndex: 39
      m_TileMatrixIndex: 0
      m_TileColorIndex: 0
      m_TileObjectToInstantiateIndex: 65535
      dummyAlignment: 0
      m_AllTileFlags: 1073741825
  - first: {x: 3, y: -5, z: 0}
    second:
      serializedVersion: 2
      m_TileIndex: 40
      m_TileSpriteIndex: 40
      m_TileMatrixIndex: 0
      m_TileColorIndex: 0
      m_TileObjectToInstantiateIndex: 65535
      dummyAlignment: 0
      m_AllTileFlags: 1073741825
  - first: {x: 4, y: -5, z: 0}
    second:
      serializedVersion: 2
      m_TileIndex: 41
      m_TileSpriteIndex: 41
      m_TileMatrixIndex: 0
      m_TileColorIndex: 0
      m_TileObjectToInstantiateIndex: 65535
      dummyAlignment: 0
      m_AllTileFlags: 1073741825
  - first: {x: -1, y: -4, z: 0}
    second:
      serializedVersion: 2
      m_TileIndex: 30
      m_TileSpriteIndex: 30
      m_TileMatrixIndex: 0
      m_TileColorIndex: 0
      m_TileObjectToInstantiateIndex: 65535
      dummyAlignment: 0
      m_AllTileFlags: 1073741825
  - first: {x: 0, y: -4, z: 0}
    second:
      serializedVersion: 2
      m_TileIndex: 31
      m_TileSpriteIndex: 31
      m_TileMatrixIndex: 0
      m_TileColorIndex: 0
      m_TileObjectToInstantiateIndex: 65535
      dummyAlignment: 0
      m_AllTileFlags: 1073741825
  - first: {x: 1, y: -4, z: 0}
    second:
      serializedVersion: 2
      m_TileIndex: 32
      m_TileSpriteIndex: 32
      m_TileMatrixIndex: 0
      m_TileColorIndex: 0
      m_TileObjectToInstantiateIndex: 65535
      dummyAlignment: 0
      m_AllTileFlags: 1073741825
  - first: {x: 2, y: -4, z: 0}
    second:
      serializedVersion: 2
      m_TileIndex: 33
      m_TileSpriteIndex: 33
      m_TileMatrixIndex: 0
      m_TileColorIndex: 0
      m_TileObjectToInstantiateIndex: 65535
      dummyAlignment: 0
      m_AllTileFlags: 1073741825
  - first: {x: 3, y: -4, z: 0}
    second:
      serializedVersion: 2
      m_TileIndex: 34
      m_TileSpriteIndex: 34
      m_TileMatrixIndex: 0
      m_TileColorIndex: 0
      m_TileObjectToInstantiateIndex: 65535
      dummyAlignment: 0
      m_AllTileFlags: 1073741825
  - first: {x: 4, y: -4, z: 0}
    second:
      serializedVersion: 2
      m_TileIndex: 35
      m_TileSpriteIndex: 35
      m_TileMatrixIndex: 0
      m_TileColorIndex: 0
      m_TileObjectToInstantiateIndex: 65535
      dummyAlignment: 0
      m_AllTileFlags: 1073741825
  - first: {x: -1, y: -3, z: 0}
    second:
      serializedVersion: 2
      m_TileIndex: 24
      m_TileSpriteIndex: 24
      m_TileMatrixIndex: 0
      m_TileColorIndex: 0
      m_TileObjectToInstantiateIndex: 65535
      dummyAlignment: 0
      m_AllTileFlags: 1073741825
  - first: {x: 0, y: -3, z: 0}
    second:
      serializedVersion: 2
      m_TileIndex: 25
      m_TileSpriteIndex: 25
      m_TileMatrixIndex: 0
      m_TileColorIndex: 0
      m_TileObjectToInstantiateIndex: 65535
      dummyAlignment: 0
      m_AllTileFlags: 1073741825
  - first: {x: 1, y: -3, z: 0}
    second:
      serializedVersion: 2
      m_TileIndex: 26
      m_TileSpriteIndex: 26
      m_TileMatrixIndex: 0
      m_TileColorIndex: 0
      m_TileObjectToInstantiateIndex: 65535
      dummyAlignment: 0
      m_AllTileFlags: 1073741825
  - first: {x: 2, y: -3, z: 0}
    second:
      serializedVersion: 2
      m_TileIndex: 27
      m_TileSpriteIndex: 27
      m_TileMatrixIndex: 0
      m_TileColorIndex: 0
      m_TileObjectToInstantiateIndex: 65535
      dummyAlignment: 0
      m_AllTileFlags: 1073741825
  - first: {x: 3, y: -3, z: 0}
    second:
      serializedVersion: 2
      m_TileIndex: 28
      m_TileSpriteIndex: 28
      m_TileMatrixIndex: 0
      m_TileColorIndex: 0
      m_TileObjectToInstantiateIndex: 65535
      dummyAlignment: 0
      m_AllTileFlags: 1073741825
  - first: {x: 4, y: -3, z: 0}
    second:
      serializedVersion: 2
      m_TileIndex: 29
      m_TileSpriteIndex: 29
      m_TileMatrixIndex: 0
      m_TileColorIndex: 0
      m_TileObjectToInstantiateIndex: 65535
      dummyAlignment: 0
      m_AllTileFlags: 1073741825
  - first: {x: -1, y: -2, z: 0}
    second:
      serializedVersion: 2
      m_TileIndex: 18
      m_TileSpriteIndex: 18
      m_TileMatrixIndex: 0
      m_TileColorIndex: 0
      m_TileObjectToInstantiateIndex: 65535
      dummyAlignment: 0
      m_AllTileFlags: 1073741825
  - first: {x: 0, y: -2, z: 0}
    second:
      serializedVersion: 2
      m_TileIndex: 19
      m_TileSpriteIndex: 19
      m_TileMatrixIndex: 0
      m_TileColorIndex: 0
      m_TileObjectToInstantiateIndex: 65535
      dummyAlignment: 0
      m_AllTileFlags: 1073741825
  - first: {x: 1, y: -2, z: 0}
    second:
      serializedVersion: 2
      m_TileIndex: 20
      m_TileSpriteIndex: 20
      m_TileMatrixIndex: 0
      m_TileColorIndex: 0
      m_TileObjectToInstantiateIndex: 65535
      dummyAlignment: 0
      m_AllTileFlags: 1073741825
  - first: {x: 2, y: -2, z: 0}
    second:
      serializedVersion: 2
      m_TileIndex: 21
      m_TileSpriteIndex: 21
      m_TileMatrixIndex: 0
      m_TileColorIndex: 0
      m_TileObjectToInstantiateIndex: 65535
      dummyAlignment: 0
      m_AllTileFlags: 1073741825
  - first: {x: 3, y: -2, z: 0}
    second:
      serializedVersion: 2
      m_TileIndex: 22
      m_TileSpriteIndex: 22
      m_TileMatrixIndex: 0
      m_TileColorIndex: 0
      m_TileObjectToInstantiateIndex: 65535
      dummyAlignment: 0
      m_AllTileFlags: 1073741825
  - first: {x: 4, y: -2, z: 0}
    second:
      serializedVersion: 2
      m_TileIndex: 23
      m_TileSpriteIndex: 23
      m_TileMatrixIndex: 0
      m_TileColorIndex: 0
      m_TileObjectToInstantiateIndex: 65535
      dummyAlignment: 0
      m_AllTileFlags: 1073741825
  - first: {x: -1, y: -1, z: 0}
    second:
      serializedVersion: 2
      m_TileIndex: 12
      m_TileSpriteIndex: 12
      m_TileMatrixIndex: 0
      m_TileColorIndex: 0
      m_TileObjectToInstantiateIndex: 65535
      dummyAlignment: 0
      m_AllTileFlags: 1073741825
  - first: {x: 0, y: -1, z: 0}
    second:
      serializedVersion: 2
      m_TileIndex: 13
      m_TileSpriteIndex: 13
      m_TileMatrixIndex: 0
      m_TileColorIndex: 0
      m_TileObjectToInstantiateIndex: 65535
      dummyAlignment: 0
      m_AllTileFlags: 1073741825
  - first: {x: 1, y: -1, z: 0}
    second:
      serializedVersion: 2
      m_TileIndex: 14
      m_TileSpriteIndex: 14
      m_TileMatrixIndex: 0
      m_TileColorIndex: 0
      m_TileObjectToInstantiateIndex: 65535
      dummyAlignment: 0
      m_AllTileFlags: 1073741825
  - first: {x: 2, y: -1, z: 0}
    second:
      serializedVersion: 2
      m_TileIndex: 15
      m_TileSpriteIndex: 15
      m_TileMatrixIndex: 0
      m_TileColorIndex: 0
      m_TileObjectToInstantiateIndex: 65535
      dummyAlignment: 0
      m_AllTileFlags: 1073741825
  - first: {x: 3, y: -1, z: 0}
    second:
      serializedVersion: 2
      m_TileIndex: 16
      m_TileSpriteIndex: 16
      m_TileMatrixIndex: 0
      m_TileColorIndex: 0
      m_TileObjectToInstantiateIndex: 65535
      dummyAlignment: 0
      m_AllTileFlags: 1073741825
  - first: {x: 4, y: -1, z: 0}
    second:
      serializedVersion: 2
      m_TileIndex: 17
      m_TileSpriteIndex: 17
      m_TileMatrixIndex: 0
      m_TileColorIndex: 0
      m_TileObjectToInstantiateIndex: 65535
      dummyAlignment: 0
      m_AllTileFlags: 1073741825
  - first: {x: -1, y: 0, z: 0}
    second:
      serializedVersion: 2
      m_TileIndex: 6
      m_TileSpriteIndex: 6
      m_TileMatrixIndex: 0
      m_TileColorIndex: 0
      m_TileObjectToInstantiateIndex: 65535
      dummyAlignment: 0
      m_AllTileFlags: 1073741825
  - first: {x: 0, y: 0, z: 0}
    second:
      serializedVersion: 2
      m_TileIndex: 7
      m_TileSpriteIndex: 7
      m_TileMatrixIndex: 0
      m_TileColorIndex: 0
      m_TileObjectToInstantiateIndex: 65535
      dummyAlignment: 0
      m_AllTileFlags: 1073741825
  - first: {x: 1, y: 0, z: 0}
    second:
      serializedVersion: 2
      m_TileIndex: 8
      m_TileSpriteIndex: 8
      m_TileMatrixIndex: 0
      m_TileColorIndex: 0
      m_TileObjectToInstantiateIndex: 65535
      dummyAlignment: 0
      m_AllTileFlags: 1073741825
  - first: {x: 2, y: 0, z: 0}
    second:
      serializedVersion: 2
      m_TileIndex: 9
      m_TileSpriteIndex: 9
      m_TileMatrixIndex: 0
      m_TileColorIndex: 0
      m_TileObjectToInstantiateIndex: 65535
      dummyAlignment: 0
      m_AllTileFlags: 1073741825
  - first: {x: 3, y: 0, z: 0}
    second:
      serializedVersion: 2
      m_TileIndex: 10
      m_TileSpriteIndex: 10
      m_TileMatrixIndex: 0
      m_TileColorIndex: 0
      m_TileObjectToInstantiateIndex: 65535
      dummyAlignment: 0
      m_AllTileFlags: 1073741825
  - first: {x: 4, y: 0, z: 0}
    second:
      serializedVersion: 2
      m_TileIndex: 11
      m_TileSpriteIndex: 11
      m_TileMatrixIndex: 0
      m_TileColorIndex: 0
      m_TileObjectToInstantiateIndex: 65535
      dummyAlignment: 0
      m_AllTileFlags: 1073741825
  - first: {x: -1, y: 1, z: 0}
    second:
      serializedVersion: 2
      m_TileIndex: 0
      m_TileSpriteIndex: 0
      m_TileMatrixIndex: 0
      m_TileColorIndex: 0
      m_TileObjectToInstantiateIndex: 65535
      dummyAlignment: 0
      m_AllTileFlags: 1073741825
  - first: {x: 0, y: 1, z: 0}
    second:
      serializedVersion: 2
      m_TileIndex: 1
      m_TileSpriteIndex: 1
      m_TileMatrixIndex: 0
      m_TileColorIndex: 0
      m_TileObjectToInstantiateIndex: 65535
      dummyAlignment: 0
      m_AllTileFlags: 1073741825
  - first: {x: 1, y: 1, z: 0}
    second:
      serializedVersion: 2
      m_TileIndex: 2
      m_TileSpriteIndex: 2
      m_TileMatrixIndex: 0
      m_TileColorIndex: 0
      m_TileObjectToInstantiateIndex: 65535
      dummyAlignment: 0
      m_AllTileFlags: 1073741825
  - first: {x: 2, y: 1, z: 0}
    second:
      serializedVersion: 2
      m_TileIndex: 3
      m_TileSpriteIndex: 3
      m_TileMatrixIndex: 0
      m_TileColorIndex: 0
      m_TileObjectToInstantiateIndex: 65535
      dummyAlignment: 0
      m_AllTileFlags: 1073741825
  - first: {x: 3, y: 1, z: 0}
    second:
      serializedVersion: 2
      m_TileIndex: 4
      m_TileSpriteIndex: 4
      m_TileMatrixIndex: 0
      m_TileColorIndex: 0
      m_TileObjectToInstantiateIndex: 65535
      dummyAlignment: 0
      m_AllTileFlags: 1073741825
  - first: {x: 4, y: 1, z: 0}
    second:
      serializedVersion: 2
      m_TileIndex: 5
      m_TileSpriteIndex: 5
      m_TileMatrixIndex: 0
      m_TileColorIndex: 0
      m_TileObjectToInstantiateIndex: 65535
      dummyAlignment: 0
      m_AllTileFlags: 1073741825
  m_AnimatedTiles: {}
  m_TileAssetArray:
  - m_RefCount: 1
    m_Data: {fileID: 11400000, guid: 22b0c8e87df36634a9d02eb3da300a06, type: 2}
  - m_RefCount: 1
    m_Data: {fileID: 11400000, guid: d794b39557304f04a8482fb5975937a2, type: 2}
  - m_RefCount: 1
    m_Data: {fileID: 11400000, guid: e6506ff041fd0ce4fbdddeee4d0c4720, type: 2}
  - m_RefCount: 1
    m_Data: {fileID: 11400000, guid: 679eb3302e07ed047ac83c0948c80e99, type: 2}
  - m_RefCount: 1
    m_Data: {fileID: 11400000, guid: db5f4cd476120f14d839a916580222b5, type: 2}
  - m_RefCount: 1
    m_Data: {fileID: 11400000, guid: f68054e6d811dc44a93ac3f5406b764f, type: 2}
  - m_RefCount: 1
    m_Data: {fileID: 11400000, guid: 7972bbaed3bfb084394a374e8de49290, type: 2}
  - m_RefCount: 1
    m_Data: {fileID: 11400000, guid: c640805507f90194da92014d5e704e5d, type: 2}
  - m_RefCount: 1
    m_Data: {fileID: 11400000, guid: 72853de888a577843869561e358dd6ab, type: 2}
  - m_RefCount: 1
    m_Data: {fileID: 11400000, guid: 8d01ce3a233c15c4f8c6b6d02ec0b239, type: 2}
  - m_RefCount: 1
    m_Data: {fileID: 11400000, guid: 85b9f823abef9374c87398e9dce0a008, type: 2}
  - m_RefCount: 1
    m_Data: {fileID: 11400000, guid: 3e4a459860116ff4e905af533a5f9a55, type: 2}
  - m_RefCount: 1
    m_Data: {fileID: 11400000, guid: 8c66da732552c0247a172d9dcadce64c, type: 2}
  - m_RefCount: 1
    m_Data: {fileID: 11400000, guid: ca674c9bc0db6af418a471b9eb318333, type: 2}
  - m_RefCount: 1
    m_Data: {fileID: 11400000, guid: a3845dfcb767ed945af7cda4a8ce0bb8, type: 2}
  - m_RefCount: 1
    m_Data: {fileID: 11400000, guid: af7c8a9adc171bf4183815b85a0f5db7, type: 2}
  - m_RefCount: 1
    m_Data: {fileID: 11400000, guid: 4c9e199e3accb2449a0d5b4075469813, type: 2}
  - m_RefCount: 1
    m_Data: {fileID: 11400000, guid: 95fb6629c8b1ffc43b3c086180f263c0, type: 2}
  - m_RefCount: 1
    m_Data: {fileID: 11400000, guid: c08f79e8f55ec414d948486a0f3437bf, type: 2}
  - m_RefCount: 1
    m_Data: {fileID: 11400000, guid: 6a1e7bb45e16b194fbceaa8786c42d45, type: 2}
  - m_RefCount: 1
    m_Data: {fileID: 11400000, guid: 850ca900b2f92b447ab5b8ec44173732, type: 2}
  - m_RefCount: 1
    m_Data: {fileID: 11400000, guid: 4fe8a6417d2027c45a0b20c5a37e832d, type: 2}
  - m_RefCount: 1
    m_Data: {fileID: 11400000, guid: cc07190b194988a4ea01fe1d7d1067ed, type: 2}
  - m_RefCount: 1
    m_Data: {fileID: 11400000, guid: 1b87e00b0f11a76449205cfe6a4dda78, type: 2}
  - m_RefCount: 1
    m_Data: {fileID: 11400000, guid: 4e7260d0dfd69df4b906f254200d9db1, type: 2}
  - m_RefCount: 1
    m_Data: {fileID: 11400000, guid: 94fd3822270c4c24c846b0e2c36cc54e, type: 2}
  - m_RefCount: 1
    m_Data: {fileID: 11400000, guid: f7183a731764f4d4d8c172495ddd73c1, type: 2}
  - m_RefCount: 1
    m_Data: {fileID: 11400000, guid: 863f33512e4bd2d4f98c1184dc2a5576, type: 2}
  - m_RefCount: 1
    m_Data: {fileID: 11400000, guid: a81afd7f3c48b244686e3cb68b10df15, type: 2}
  - m_RefCount: 1
    m_Data: {fileID: 11400000, guid: cd9d932a57119a84f8965f82165b13c7, type: 2}
  - m_RefCount: 1
    m_Data: {fileID: 11400000, guid: 2abc967a9b580e04f9cd30b8f950ea8f, type: 2}
  - m_RefCount: 1
    m_Data: {fileID: 11400000, guid: 03e08c558e9170b42bf4b6c10812548e, type: 2}
  - m_RefCount: 1
    m_Data: {fileID: 11400000, guid: f291d200042ec8e4a9a8d98ede8b7346, type: 2}
  - m_RefCount: 1
    m_Data: {fileID: 11400000, guid: de618a89c507e0d4d857626936c510fc, type: 2}
  - m_RefCount: 1
    m_Data: {fileID: 11400000, guid: 1d26df2f5c5900e4faa36e0c5b4c9807, type: 2}
  - m_RefCount: 1
    m_Data: {fileID: 11400000, guid: 43ff91c5d29232a4385498f9e2c1ad19, type: 2}
  - m_RefCount: 1
    m_Data: {fileID: 11400000, guid: 6621d17b907d83343b834c7c7360eaf2, type: 2}
  - m_RefCount: 1
    m_Data: {fileID: 11400000, guid: 9a68970f935e51443ab4d4655f675535, type: 2}
  - m_RefCount: 1
    m_Data: {fileID: 11400000, guid: f7456bb9c666e0e4cab630b0ce7d2f54, type: 2}
  - m_RefCount: 1
    m_Data: {fileID: 11400000, guid: b6b43d728a077e0429be6f65d65b7b09, type: 2}
  - m_RefCount: 1
    m_Data: {fileID: 11400000, guid: d6b3e8353ffe5ae419a2860bb7ed9fa9, type: 2}
  - m_RefCount: 1
    m_Data: {fileID: 11400000, guid: 2b261464301de484daf19dc45cf5885f, type: 2}
  - m_RefCount: 1
    m_Data: {fileID: 11400000, guid: d5fcfad2cc78a294491afc455be06f7b, type: 2}
  - m_RefCount: 1
    m_Data: {fileID: 11400000, guid: 509537ad74b8edf4fad9c2f13d469fa4, type: 2}
  - m_RefCount: 1
    m_Data: {fileID: 11400000, guid: 567742b9a2f546d4597498c06f01e704, type: 2}
  - m_RefCount: 1
    m_Data: {fileID: 11400000, guid: 9fde6d75aba9c514e97dd75e1d4b75ae, type: 2}
  - m_RefCount: 1
    m_Data: {fileID: 11400000, guid: 72a088eb37bb6c248a726b3f86be257d, type: 2}
  - m_RefCount: 1
    m_Data: {fileID: 11400000, guid: 9cd75e34a8bc1d44aaed732ec113291a, type: 2}
  m_TileSpriteArray:
  - m_RefCount: 1
    m_Data: {fileID: 1334404309, guid: ad50a5475c35c854fbb09be2bbf8ecde, type: 3}
  - m_RefCount: 1
    m_Data: {fileID: 313801610, guid: ad50a5475c35c854fbb09be2bbf8ecde, type: 3}
  - m_RefCount: 1
    m_Data: {fileID: 1213620399, guid: ad50a5475c35c854fbb09be2bbf8ecde, type: 3}
  - m_RefCount: 1
    m_Data: {fileID: 14679382, guid: ad50a5475c35c854fbb09be2bbf8ecde, type: 3}
  - m_RefCount: 1
    m_Data: {fileID: 1554420625, guid: ad50a5475c35c854fbb09be2bbf8ecde, type: 3}
  - m_RefCount: 1
    m_Data: {fileID: 1502194889, guid: ad50a5475c35c854fbb09be2bbf8ecde, type: 3}
  - m_RefCount: 1
    m_Data: {fileID: 267410037, guid: ad50a5475c35c854fbb09be2bbf8ecde, type: 3}
  - m_RefCount: 1
    m_Data: {fileID: -1781430502, guid: ad50a5475c35c854fbb09be2bbf8ecde, type: 3}
  - m_RefCount: 1
    m_Data: {fileID: -1838038696, guid: ad50a5475c35c854fbb09be2bbf8ecde, type: 3}
  - m_RefCount: 1
    m_Data: {fileID: 1251159042, guid: ad50a5475c35c854fbb09be2bbf8ecde, type: 3}
  - m_RefCount: 1
    m_Data: {fileID: 894553014, guid: ad50a5475c35c854fbb09be2bbf8ecde, type: 3}
  - m_RefCount: 1
    m_Data: {fileID: -1833760789, guid: ad50a5475c35c854fbb09be2bbf8ecde, type: 3}
  - m_RefCount: 1
    m_Data: {fileID: 150547937, guid: ad50a5475c35c854fbb09be2bbf8ecde, type: 3}
  - m_RefCount: 1
    m_Data: {fileID: 458195204, guid: ad50a5475c35c854fbb09be2bbf8ecde, type: 3}
  - m_RefCount: 1
    m_Data: {fileID: -146604771, guid: ad50a5475c35c854fbb09be2bbf8ecde, type: 3}
  - m_RefCount: 1
    m_Data: {fileID: -102660736, guid: ad50a5475c35c854fbb09be2bbf8ecde, type: 3}
  - m_RefCount: 1
    m_Data: {fileID: 435707951, guid: ad50a5475c35c854fbb09be2bbf8ecde, type: 3}
  - m_RefCount: 1
    m_Data: {fileID: 1973388264, guid: ad50a5475c35c854fbb09be2bbf8ecde, type: 3}
  - m_RefCount: 1
    m_Data: {fileID: -851556766, guid: ad50a5475c35c854fbb09be2bbf8ecde, type: 3}
  - m_RefCount: 1
    m_Data: {fileID: 1003364749, guid: ad50a5475c35c854fbb09be2bbf8ecde, type: 3}
  - m_RefCount: 1
    m_Data: {fileID: 752301100, guid: ad50a5475c35c854fbb09be2bbf8ecde, type: 3}
  - m_RefCount: 1
    m_Data: {fileID: 1319827119, guid: ad50a5475c35c854fbb09be2bbf8ecde, type: 3}
  - m_RefCount: 1
    m_Data: {fileID: 2124390131, guid: ad50a5475c35c854fbb09be2bbf8ecde, type: 3}
  - m_RefCount: 1
    m_Data: {fileID: -547656722, guid: ad50a5475c35c854fbb09be2bbf8ecde, type: 3}
  - m_RefCount: 1
    m_Data: {fileID: 553891655, guid: ad50a5475c35c854fbb09be2bbf8ecde, type: 3}
  - m_RefCount: 1
    m_Data: {fileID: -353296449, guid: ad50a5475c35c854fbb09be2bbf8ecde, type: 3}
  - m_RefCount: 1
    m_Data: {fileID: 1159851769, guid: ad50a5475c35c854fbb09be2bbf8ecde, type: 3}
  - m_RefCount: 1
    m_Data: {fileID: 2131195896, guid: ad50a5475c35c854fbb09be2bbf8ecde, type: 3}
  - m_RefCount: 1
    m_Data: {fileID: -600206043, guid: ad50a5475c35c854fbb09be2bbf8ecde, type: 3}
  - m_RefCount: 1
    m_Data: {fileID: 1207923053, guid: ad50a5475c35c854fbb09be2bbf8ecde, type: 3}
  - m_RefCount: 1
    m_Data: {fileID: 115188088, guid: ad50a5475c35c854fbb09be2bbf8ecde, type: 3}
  - m_RefCount: 1
    m_Data: {fileID: 755754339, guid: ad50a5475c35c854fbb09be2bbf8ecde, type: 3}
  - m_RefCount: 1
    m_Data: {fileID: 2011515766, guid: ad50a5475c35c854fbb09be2bbf8ecde, type: 3}
  - m_RefCount: 1
    m_Data: {fileID: -1984642658, guid: ad50a5475c35c854fbb09be2bbf8ecde, type: 3}
  - m_RefCount: 1
    m_Data: {fileID: 1563006159, guid: ad50a5475c35c854fbb09be2bbf8ecde, type: 3}
  - m_RefCount: 1
    m_Data: {fileID: 1871557830, guid: ad50a5475c35c854fbb09be2bbf8ecde, type: 3}
  - m_RefCount: 1
    m_Data: {fileID: -205812047, guid: ad50a5475c35c854fbb09be2bbf8ecde, type: 3}
  - m_RefCount: 1
    m_Data: {fileID: 1817108595, guid: ad50a5475c35c854fbb09be2bbf8ecde, type: 3}
  - m_RefCount: 1
    m_Data: {fileID: 2106138624, guid: ad50a5475c35c854fbb09be2bbf8ecde, type: 3}
  - m_RefCount: 1
    m_Data: {fileID: 1803599184, guid: ad50a5475c35c854fbb09be2bbf8ecde, type: 3}
  - m_RefCount: 1
    m_Data: {fileID: 1216326672, guid: ad50a5475c35c854fbb09be2bbf8ecde, type: 3}
  - m_RefCount: 1
    m_Data: {fileID: 408031823, guid: ad50a5475c35c854fbb09be2bbf8ecde, type: 3}
  - m_RefCount: 1
    m_Data: {fileID: 439727821, guid: ad50a5475c35c854fbb09be2bbf8ecde, type: 3}
  - m_RefCount: 1
    m_Data: {fileID: 657058617, guid: ad50a5475c35c854fbb09be2bbf8ecde, type: 3}
  - m_RefCount: 1
    m_Data: {fileID: -610560374, guid: ad50a5475c35c854fbb09be2bbf8ecde, type: 3}
  - m_RefCount: 1
    m_Data: {fileID: -1190802094, guid: ad50a5475c35c854fbb09be2bbf8ecde, type: 3}
  - m_RefCount: 1
    m_Data: {fileID: 1535029788, guid: ad50a5475c35c854fbb09be2bbf8ecde, type: 3}
  - m_RefCount: 1
    m_Data: {fileID: 487095437, guid: ad50a5475c35c854fbb09be2bbf8ecde, type: 3}
  m_TileMatrixArray:
  - m_RefCount: 48
    m_Data:
      e00: 1
      e01: 0
      e02: 0
      e03: 0
      e10: 0
      e11: 1
      e12: 0
      e13: 0
      e20: 0
      e21: 0
      e22: 1
      e23: 0
      e30: 0
      e31: 0
      e32: 0
      e33: 1
  m_TileColorArray:
  - m_RefCount: 48
    m_Data: {r: 1, g: 1, b: 1, a: 1}
  m_TileObjectToInstantiateArray: []
  m_AnimationFrameRate: 1
  m_Color: {r: 1, g: 1, b: 1, a: 1}
  m_Origin: {x: -1, y: -6, z: 0}
  m_Size: {x: 6, y: 8, z: 1}
  m_TileAnchor: {x: 0.5, y: 0.5, z: 0}
  m_TileOrientation: 0
  m_TileOrientationMatrix:
    e00: 1
    e01: 0
    e02: 0
    e03: 0
    e10: 0
    e11: 1
    e12: 0
    e13: 0
    e20: 0
    e21: 0
    e22: 1
    e23: 0
    e30: 0
    e31: 0
    e32: 0
    e33: 1
--- !u!483693784 &7572821869846304743
TilemapRenderer:
  m_ObjectHideFlags: 0
  m_CorrespondingSourceObject: {fileID: 0}
  m_PrefabInstance: {fileID: 0}
  m_PrefabAsset: {fileID: 0}
  m_GameObject: {fileID: 9091814357333773893}
  m_Enabled: 1
  m_CastShadows: 0
  m_ReceiveShadows: 0
  m_DynamicOccludee: 0
  m_StaticShadowCaster: 0
  m_MotionVectors: 1
  m_LightProbeUsage: 0
  m_ReflectionProbeUsage: 0
  m_RayTracingMode: 0
  m_RayTraceProcedural: 0
  m_RenderingLayerMask: 1
  m_RendererPriority: 0
  m_Materials:
  - {fileID: 10754, guid: 0000000000000000f000000000000000, type: 0}
  m_StaticBatchInfo:
    firstSubMesh: 0
    subMeshCount: 0
  m_StaticBatchRoot: {fileID: 0}
  m_ProbeAnchor: {fileID: 0}
  m_LightProbeVolumeOverride: {fileID: 0}
  m_ScaleInLightmap: 1
  m_ReceiveGI: 1
  m_PreserveUVs: 0
  m_IgnoreNormalsForChartDetection: 0
  m_ImportantGI: 0
  m_StitchLightmapSeams: 1
  m_SelectedEditorRenderState: 0
  m_MinimumChartSize: 4
  m_AutoUVMaxDistance: 0.5
  m_AutoUVMaxAngle: 89
  m_LightmapParameters: {fileID: 0}
  m_SortingLayerID: 0
  m_SortingLayer: 0
  m_SortingOrder: 0
  m_ChunkSize: {x: 32, y: 32, z: 32}
  m_ChunkCullingBounds: {x: 0, y: 0, z: 0}
  m_MaxChunkCount: 16
  m_MaxFrameAge: 16
  m_SortOrder: 0
  m_Mode: 0
  m_DetectChunkCullingBounds: 0
  m_MaskInteraction: 0
--- !u!114 &7221765457800141459
MonoBehaviour:
  m_ObjectHideFlags: 0
  m_CorrespondingSourceObject: {fileID: 0}
  m_PrefabInstance: {fileID: 0}
  m_PrefabAsset: {fileID: 0}
  m_GameObject: {fileID: 0}
  m_Enabled: 1
  m_EditorHideFlags: 0
  m_Script: {fileID: 12395, guid: 0000000000000000e000000000000000, type: 0}
  m_Name: Palette Settings
  m_EditorClassIdentifier: 
  cellSizing: 0
  m_TransparencySortMode: 0
  m_TransparencySortAxis: {x: 0, y: 0, z: 1}
