%YAML 1.1
%TAG !u! tag:unity3d.com,2011:
--- !u!1045 &1
EditorBuildSettings:
  m_ObjectHideFlags: 0
  serializedVersion: 2
  m_Scenes:
  - enabled: 1
    path: Assets/Scenes/MainMenu.unity
    guid: e0c89e547a78baa42a4fdc47786075a3
  - enabled: 1
    path: Assets/Scenes/SampleScene.unity
    guid: 2cda990e2423bbf4892e6590ba056729
  - enabled: 1
    path: Assets/Scenes/LostMenu.unity
    guid: af770b368118b7e4dbeeda1bdf94a088
  - enabled: 1
    path: Assets/Scenes/TransitionLevel.unity
    guid: 3676d337347534d489f476d2d4c59d27
  - enabled: 1
    path: Assets/Scenes/Level1.unity
    guid: 9e5e47a876c6c934697b6ad0e7b57ce3
  - enabled: 1
    path: Assets/Scenes/Level2.unity
    guid: 1797aa2e083789b4581671ffe9a86a01
  - enabled: 1
    path: Assets/Scenes/Level3.unity
    guid: 2ac8d1beb5795e8439c3dffca47c93e0
  - enabled: 1
    path: Assets/Scenes/BossBattle.unity
    guid: e65bfb687e88a7049822110717aa9889
  m_configObjects:
    com.unity.input.settings: {fileID: 11400000, guid: 9e35ace2b2361c54eaf92614adeab1cb, type: 2}
